…
Public_Private <- ScorecardSmall %>%
  filter(CONTROL != 3) %>%
  group_by(CONTROL) %>%
  select(CONTROL, INSTNM, ADM_RATE, NPT41_PUB, NPT43_PUB, NPT45_PUB, NPT41_PRIV, NPT43_PRIV, NPT45_PRIV) %>%
  filter(ADM_RATE != "NA") %>%
  tidyr::gather(key = QUINTILE, value = COST, NPT41_PUB, NPT43_PUB, NPT45_PUB, NPT41_PRIV, NPT43_PRIV, NPT45_PRIV) %>%
  filter(COST != "NA")

Translate 6 names to Q1, Q3, Q5

Public_Private

## Source: local data frame [5,036 x 5]
## Groups: CONTROL [2]
## 
##    CONTROL                              INSTNM ADM_RATE  QUINTILE  COST
##      <int>                               <chr>    <dbl>     <chr> <int>
## 1        1            Alabama A & M University   0.8989 NPT41_PUB 12683
## 2        1 University of Alabama at Birmingham   0.8673 NPT41_PUB 12361
## 3        1 University of Alabama in Huntsville   0.8062 NPT41_PUB 14652
## 4        1            Alabama State University   0.5125 NPT41_PUB 12342
## 5        1           The University of Alabama   0.5655 NPT41_PUB 17206
## 6        1     Auburn University at Montgomery   0.8371 NPT41_PUB  9044
## 7        1                   Auburn University   0.8274 NPT41_PUB 13191
## 8        1       Jacksonville State University   0.8326 NPT41_PUB 14021
## 9        1          University of West Alabama   0.9957 NPT41_PUB 12131
## 10       1           Marion Military Institute   0.6034 NPT41_PUB  7846
## # ... with 5,026 more rows
…
